{
  "log_dir": "Logs/SiamFC/track_model_inference/SiamFC-3s-gray-pretrained",
  "log_level": 1,
  "x_image_size": 255,
  "upsample_method": "bicubic",
  "upsample_factor": 16,
  "num_scales": 5,
  "scale_step": 1.0375,
  "scale_damp": 0.59,
  "scale_penalty": 0.9745,
  "window_influence": 0.376,
  "include_first": false
}
